{
  "global": {
    "parseVersion": "1.5.0"
  },
  "applications": {
    "Campus@PoliTO": {
      "applicationId": "NNskvw5v4Xzv17AOxCH6dKQ1z1oIed0crBLFfcKr",
      "masterKey": "z7Eph5WLNqLE7fzrUVwo3mqEZsrHG9fbj4B53p3p"
    },
    "_default": {
      "link": "Campus@PoliTO"
    }
  }
}